%YAML 1.1
%TAG !u! tag:unity3d.com,2011:
--- !u!74 &7400000
AnimationClip:
  m_ObjectHideFlags: 0
  m_CorrespondingSourceObject: {fileID: 0}
  m_PrefabInstance: {fileID: 0}
  m_PrefabAsset: {fileID: 0}
  m_Name: Dead
  serializedVersion: 6
  m_Legacy: 0
  m_Compressed: 0
  m_UseHighQualityCurve: 1
  m_RotationCurves: []
  m_CompressedRotationCurves: []
  m_EulerCurves: []
  m_PositionCurves: []
  m_ScaleCurves: []
  m_FloatCurves: []
  m_PPtrCurves:
  - curve:
    - time: 0
      value: {fileID: 21300000, guid: 8c5fb1e483591ff4ea5b1ddc1d5153e1, type: 3}
    - time: 0.05
      value: {fileID: 21300000, guid: 2b55c7d4c17ed1548ac9a678d761f248, type: 3}
    - time: 0.1
      value: {fileID: 21300000, guid: 402d086c988658648af4043fe1152bf6, type: 3}
    - time: 0.15
      value: {fileID: 21300000, guid: 579fae4642ee99442818d3d0682c1524, type: 3}
    - time: 0.2
      value: {fileID: 21300000, guid: d13065583646ebb42a0e2dba62b0580d, type: 3}
    - time: 0.25
      value: {fileID: 21300000, guid: 7577645fdba827e49acb37ace70b9bcb, type: 3}
    - time: 0.3
      value: {fileID: 21300000, guid: b433ecf790c8bd941a60c18253dfcc93, type: 3}
    - time: 0.35
      value: {fileID: 21300000, guid: 2f9993f29aad45b4680bf0254ca4f17a, type: 3}
    - time: 0.4
      value: {fileID: 21300000, guid: 5a72b45842e2ce948b8e7ddbe1617b87, type: 3}
    - time: 0.45
      value: {fileID: 21300000, guid: 38bd45dd244d1334b9047c77a39b568f, type: 3}
    attribute: m_Sprite
    path: 
    classID: 212
    script: {fileID: 0}
  m_SampleRate: 60
  m_WrapMode: 0
  m_Bounds:
    m_Center: {x: 0, y: 0, z: 0}
    m_Extent: {x: 0, y: 0, z: 0}
  m_ClipBindingConstant:
    genericBindings:
    - serializedVersion: 2
      path: 0
      attribute: 0
      script: {fileID: 0}
      typeID: 212
      customType: 23
      isPPtrCurve: 1
    pptrCurveMapping:
    - {fileID: 21300000, guid: 8c5fb1e483591ff4ea5b1ddc1d5153e1, type: 3}
    - {fileID: 21300000, guid: 2b55c7d4c17ed1548ac9a678d761f248, type: 3}
    - {fileID: 21300000, guid: 402d086c988658648af4043fe1152bf6, type: 3}
    - {fileID: 21300000, guid: 579fae4642ee99442818d3d0682c1524, type: 3}
    - {fileID: 21300000, guid: d13065583646ebb42a0e2dba62b0580d, type: 3}
    - {fileID: 21300000, guid: 7577645fdba827e49acb37ace70b9bcb, type: 3}
    - {fileID: 21300000, guid: b433ecf790c8bd941a60c18253dfcc93, type: 3}
    - {fileID: 21300000, guid: 2f9993f29aad45b4680bf0254ca4f17a, type: 3}
    - {fileID: 21300000, guid: 5a72b45842e2ce948b8e7ddbe1617b87, type: 3}
    - {fileID: 21300000, guid: 38bd45dd244d1334b9047c77a39b568f, type: 3}
  m_AnimationClipSettings:
    serializedVersion: 2
    m_AdditiveReferencePoseClip: {fileID: 0}
    m_AdditiveReferencePoseTime: 0
    m_StartTime: 0
    m_StopTime: 0.46666667
    m_OrientationOffsetY: 0
    m_Level: 0
    m_CycleOffset: 0
    m_HasAdditiveReferencePose: 0
    m_LoopTime: 0
    m_LoopBlend: 0
    m_LoopBlendOrientation: 0
    m_LoopBlendPositionY: 0
    m_LoopBlendPositionXZ: 0
    m_KeepOriginalOrientation: 0
    m_KeepOriginalPositionY: 1
    m_KeepOriginalPositionXZ: 0
    m_HeightFromFeet: 0
    m_Mirror: 0
  m_EditorCurves: []
  m_EulerEditorCurves: []
  m_HasGenericRootTransform: 0
  m_HasMotionFloatCurves: 0
  m_Events: []
