%YAML 1.1
%TAG !u! tag:unity3d.com,2011:
--- !u!74 &7400000
AnimationClip:
  m_ObjectHideFlags: 0
  m_CorrespondingSourceObject: {fileID: 0}
  m_PrefabInstance: {fileID: 0}
  m_PrefabAsset: {fileID: 0}
  m_Name: Idle
  serializedVersion: 6
  m_Legacy: 0
  m_Compressed: 0
  m_UseHighQualityCurve: 1
  m_RotationCurves: []
  m_CompressedRotationCurves: []
  m_EulerCurves: []
  m_PositionCurves: []
  m_ScaleCurves: []
  m_FloatCurves: []
  m_PPtrCurves:
  - curve:
    - time: 0
      value: {fileID: 21300000, guid: 8a5c9b8dc2b8362459619070e4b36175, type: 3}
    - time: 0.05
      value: {fileID: 21300000, guid: 43424fdc68360544c9b272fef4053188, type: 3}
    - time: 0.1
      value: {fileID: 21300000, guid: 9d11330efd55c9d4483b6fe78afbc4c6, type: 3}
    - time: 0.15
      value: {fileID: 21300000, guid: 35febb93365a2e94abb18e3963697ce2, type: 3}
    - time: 0.2
      value: {fileID: 21300000, guid: 00cf6706ecac1e9428ae630152d8ecd2, type: 3}
    - time: 0.25
      value: {fileID: 21300000, guid: 7fe97f7889f625c47845a3c463834477, type: 3}
    - time: 0.3
      value: {fileID: 21300000, guid: b0fb582224c1dea4d811fa5c775b0c57, type: 3}
    - time: 0.35
      value: {fileID: 21300000, guid: 8818c480bd2928e40962b8eb0d36ac35, type: 3}
    - time: 0.4
      value: {fileID: 21300000, guid: f105f1a72f97f5e468280dc4f50103e7, type: 3}
    - time: 0.45
      value: {fileID: 21300000, guid: 68de36e8047087644a4214ee0d2c24e9, type: 3}
    attribute: m_Sprite
    path: 
    classID: 212
    script: {fileID: 0}
  m_SampleRate: 60
  m_WrapMode: 0
  m_Bounds:
    m_Center: {x: 0, y: 0, z: 0}
    m_Extent: {x: 0, y: 0, z: 0}
  m_ClipBindingConstant:
    genericBindings:
    - serializedVersion: 2
      path: 0
      attribute: 0
      script: {fileID: 0}
      typeID: 212
      customType: 23
      isPPtrCurve: 1
    pptrCurveMapping:
    - {fileID: 21300000, guid: 8a5c9b8dc2b8362459619070e4b36175, type: 3}
    - {fileID: 21300000, guid: 43424fdc68360544c9b272fef4053188, type: 3}
    - {fileID: 21300000, guid: 9d11330efd55c9d4483b6fe78afbc4c6, type: 3}
    - {fileID: 21300000, guid: 35febb93365a2e94abb18e3963697ce2, type: 3}
    - {fileID: 21300000, guid: 00cf6706ecac1e9428ae630152d8ecd2, type: 3}
    - {fileID: 21300000, guid: 7fe97f7889f625c47845a3c463834477, type: 3}
    - {fileID: 21300000, guid: b0fb582224c1dea4d811fa5c775b0c57, type: 3}
    - {fileID: 21300000, guid: 8818c480bd2928e40962b8eb0d36ac35, type: 3}
    - {fileID: 21300000, guid: f105f1a72f97f5e468280dc4f50103e7, type: 3}
    - {fileID: 21300000, guid: 68de36e8047087644a4214ee0d2c24e9, type: 3}
  m_AnimationClipSettings:
    serializedVersion: 2
    m_AdditiveReferencePoseClip: {fileID: 0}
    m_AdditiveReferencePoseTime: 0
    m_StartTime: 0
    m_StopTime: 0.46666667
    m_OrientationOffsetY: 0
    m_Level: 0
    m_CycleOffset: 0
    m_HasAdditiveReferencePose: 0
    m_LoopTime: 1
    m_LoopBlend: 0
    m_LoopBlendOrientation: 0
    m_LoopBlendPositionY: 0
    m_LoopBlendPositionXZ: 0
    m_KeepOriginalOrientation: 0
    m_KeepOriginalPositionY: 1
    m_KeepOriginalPositionXZ: 0
    m_HeightFromFeet: 0
    m_Mirror: 0
  m_EditorCurves: []
  m_EulerEditorCurves: []
  m_HasGenericRootTransform: 0
  m_HasMotionFloatCurves: 0
  m_Events: []
